{
    "prepare_queue": {
        "installed": [],
        "uninstalled": []
    },
    "config_munge": {
        "files": {
            "res/xml/config.xml": {
                "parents": {
                    "/*": [
                        {
                            "xml": "<feature name=\"Device\"><param name=\"android-package\" value=\"org.apache.cordova.device.Device\" /></feature>",
                            "count": 1
                        },
                        {
                            "xml": "<feature name=\"SessionMPlugin\"><param name=\"android-package\" value=\"com.sessionm.phonegap.SessionMPlugin\" /></feature>",
                            "count": 1
                        }
                    ]
                }
            },
            "AndroidManifest.xml": {
                "parents": {
                    "/manifest/application": [
                        {
                            "xml": "<receiver android:name=\"com.sessionm.api.ConnectionReceiver\"><intent-filter><action android:name=\"android.net.conn.CONNECTIVITY_CHANGE\"></action></intent-filter></receiver>",
                            "count": 1
                        },
                        {
                            "xml": "<activity android:configChanges=\"keyboard|orientation|screenSize\" android:name=\"com.sessionm.ui.SessionMActivity\" android:theme=\"@android:style/Theme.Black.NoTitleBar.Fullscreen\" android:windowSoftInputMode=\"adjustPan\"></activity>",
                            "count": 1
                        },
                        {
                            "xml": "<activity android:configChanges=\"keyboard|orientation|screenSize\" android:name=\"com.sessionm.ui.SessionMVideoActivity\" />",
                            "count": 1
                        }
                    ]
                }
            }
        }
    },
    "installed_plugins": {
        "org.apache.cordova.device": {
            "PACKAGE_NAME": "io.cordova.hellocordova"
        },
        "com.sessionm.phonegap": {
            "PACKAGE_NAME": "io.cordova.hellocordova"
        }
    },
    "dependent_plugins": {}
}